…
res <- wt_wikispecies("Malus domestica")
res$classification
#> # A tibble: 8 x 2
#>   rank        name         
#>   <chr>       <chr>        
#> 1 Superregnum Eukaryota    
#> 2 Regnum      Plantae      
#> 3 Cladus      Angiosperms  
#> 4 Cladus      Eudicots     
#> 5 Cladus      Core eudicots
#> 6 Cladus      Rosids       
#> 7 Cladus      Eurosids I   
#> 8 Ordo        Rosales
res$common_names
#> # A tibble: 22 x 2
#>    name          language 
#>    <chr>         <chr>    
#>  1 Ябълка        български
#>  2 Poma, pomera  català   
#>  3 jabloň domácí čeština  
#>  4 Apfel         Deutsch  
#>  5 Aed-õunapuu   eesti    
#>  6 Μηλιά         Ελληνικά 
#>  7 Apple         English  
#>  8 Manzano       español  
#>  9 Pomme         français 
#> 10 Melâr         furlan   
#> # ... with 12 more rows
```
…
