Wikipedia — wt_wikipedia • wikitaxa
…
    wt_wikipedia_search returns a list with slots for continue and
query, where query holds the results, with query$search slot with
the search results

    References

    https://www.mediawiki.org/wiki/API:Search for help on search

    Examples

# high level
wt_wikipedia(name = "Malus domestica")
#> $langlinks
#> # A tibble: 144 × 5
#>       lang                                                           url
#> *    <chr>                                                         <chr>
#> 1       af                           https://af.wikipedia.org/wiki/Appel
#> 2      als                          https://als.wikipedia.org/wiki/Apfel
#> 3      ang                     https://ang.wikipedia.org/wiki/%C3%86ppel
#> 4       ar        https://ar.wikipedia.org/wiki/%D8%AA%D9%81%D8%A7%D8%AD
#> 5       an                          https://an.wikipedia.org/wiki/Mazana
#> 6      arc https://arc.wikipedia.org/wiki/%DC%9A%DC%99%DC%98%DC%AA%DC%90
#> 7  roa-rup                  https://roa-rup.wikipedia.org/wiki/Muz%C3%A2
#> 8      ast                         https://ast.wikipedia.org/wiki/Mazana
#> 9       gn                   https://gn.wikipedia.org/wiki/Guavirana%27a
#> 10      az               https://az.wikipedia.org/wiki/Alma_(meyv%C9%99)
#> # ... with 134 more rows, and 3 more variables: langname <chr>, autonym <chr>,
#> #   `*` <chr>
…
#> [1] "M. pumila"
#> 
#> 
#> $classification[[9]]
#> $classification[[9]]$rank
#> [1] "binomial"
#> 
#> $classification[[9]]$name
#> [1] "Malus pumila"
#> 
#> 
#> 
wt_wikipedia_parse(pg, tidy = TRUE)
#> $langlinks
#> # A tibble: 144 × 5
#>       lang                                                           url
#> *    <chr>                                                         <chr>
#> 1       af                           https://af.wikipedia.org/wiki/Appel
#> 2      als                          https://als.wikipedia.org/wiki/Apfel
#> 3      ang                     https://ang.wikipedia.org/wiki/%C3%86ppel
#> 4       ar        https://ar.wikipedia.org/wiki/%D8%AA%D9%81%D8%A7%D8%AD
#> 5       an                          https://an.wikipedia.org/wiki/Mazana
#> 6      arc https://arc.wikipedia.org/wiki/%DC%9A%DC%99%DC%98%DC%AA%DC%90
#> 7  roa-rup                  https://roa-rup.wikipedia.org/wiki/Muz%C3%A2
#> 8      ast                         https://ast.wikipedia.org/wiki/Mazana
#> 9       gn                   https://gn.wikipedia.org/wiki/Guavirana%27a
#> 10      az               https://az.wikipedia.org/wiki/Alma_(meyv%C9%99)
#> # ... with 134 more rows, and 3 more variables: langname <chr>, autonym <chr>,
#> #   `*` <chr>
#> 
#> $iwlinks
#> # A tibble: 7 × 1
#>                                                                    value
#>                                                                    <chr>
#> 1                                   https://en.wiktionary.org/wiki/apple
#> 2                https://commons.wikimedia.org/wiki/Special:Search/Apple
#> 3                                   https://en.wikiquote.org/wiki/Apples
#> 4 https://en.wikisource.org/wiki/1911_Encyclop%C3%A6dia_Britannica/Apple
#> 5                                   https://en.wikibooks.org/wiki/Apples
#> 6                     https://species.wikimedia.org/wiki/Malus_domestica
#> 7            https://commons.wikimedia.org/wiki/Category:Apple_cultivars
#> 
#> $externallinks
#> [1] "http://www.efloras.org/florataxon.aspx?flora_id=1&taxon_id=200010913"                                                     
#> [2] "//dx.doi.org/10.12705%2F636.20"                                                                                           
#> [3] "http://faostat3.fao.org/browse/Q/QC/E"                                                                                    
#> [4] "http://www.treenames.net/ti/malus/index_apple_tree.html"                                                                  
#> [5] "http://www.uga.edu/fruit/apple.html"                                                                                      
#> [6] "https://web.archive.org/web/20080121045236/http://www.uga.edu/fruit/apple.html"                                           
#> [7] "http://www.nhm.ac.uk/nature-online/british-natural-history/urban-tree-survey/identify-trees/tree-factsheets/a-to-b/apple/"
#> [8] "http://www.hort.purdue.edu/newcrop/pri/chapter.pdf"                                                                       
#>  [ reached getOption("max.print") -- omitted 83 entries ]
…
## curl options
# wt_wikipedia_search(query = "Pinus", verbose = TRUE)

## use search results to dig into pages
res <- wt_wikipedia_search(query = "Pinus")
lapply(res$query$search$title[1:3], wt_wikipedia)
#> [[1]]
#> [[1]]$langlinks
#> # A tibble: 101 × 5
#>     lang
#> *  <chr>
#> 1     af
#> 2    als
#> 3    ang
#> 4     ar
#> 5     an
#> 6     az
#> 7     be
#> 8     bg
#> 9    bar
#> 10    bo
#> # ... with 91 more rows, and 4 more variables: url <chr>, langname <chr>,
#> #   autonym <chr>, `*` <chr>
…
