WikiCommons — wt_wikicommons • wikitaxa
…
    wt_wikicommons_search returns a list with slots for continue and
query, where query holds the results, with query$search slot with
the search results

    References

    https://www.mediawiki.org/wiki/API:Search for help on search

    Examples

# high level
wt_wikicommons(name = "Malus domestica")
#> $langlinks
#> # A tibble: 124 × 5
#>        lang
#> *     <chr>
#> 1       als
#> 2        am
#> 3        an
#> 4        ar
#> 5        as
#> 6       ast
#> 7        az
#> 8   bat-smg
#> 9        be
#> 10 be-x-old
#> # ... with 114 more rows, and 4 more variables: url <chr>, langname <chr>,
#> #   autonym <chr>, `*` <chr>
#> 
#> $externallinks
#> [1] "https://www.wikidata.org/wiki/Q158657"
#> 
#> $common_names
#> # A tibble: 151 × 2
#>              name language
#>             <chr>    <chr>
#> 1  paradise apple       en
#> 2           تفّاحة aeb-arab
#> 3         toffè7a aeb-latn
#> 4     Kulturapfel      als
#> 5              ፖም       am
#> 6          Mazana       an
#> 7        تفاح قزم       ar
#> 8            تفاح      arz
#> 9            আপেল       as
#> 10         Mazana      ast
#> # ... with 141 more rows
…
## use search results to dig into pages
res <- wt_wikicommons_search(query = "Pinus")
lapply(res$query$search$title[1:3], wt_wikicommons)
#> [[1]]
#> [[1]]$langlinks
#> # A tibble: 103 × 5
#>       lang                                                          url
#> *    <chr>                                                        <chr>
#> 1       af                      https://af.wikipedia.org/wiki/Denneboom
#> 2      als                 https://als.wikipedia.org/wiki/Kiefer_(Baum)
#> 3       an                          https://an.wikipedia.org/wiki/Pinus
#> 4      ang            https://ang.wikipedia.org/wiki/P%C4%ABntr%C4%93ow
#> 5       ar https://ar.wikipedia.org/wiki/%D8%B5%D9%86%D9%88%D8%A8%D8%B1
#> 6       az       https://az.wikipedia.org/wiki/%C5%9Eam_a%C4%9Fac%C4%B1
#> 7      bar                        https://bar.wikipedia.org/wiki/Farchn
#> 8  bat-smg                https://bat-smg.wikipedia.org/wiki/Po%C5%A1is
#> 9       be       https://be.wikipedia.org/wiki/%D0%A5%D0%B2%D0%BE%D1%8F
#> 10      bg             https://bg.wikipedia.org/wiki/%D0%91%D0%BE%D1%80
#> # ... with 93 more rows, and 3 more variables: langname <chr>, autonym <chr>,
#> #   `*` <chr>
#> 
#> [[1]]$externallinks
#> [1] "https://www.wikidata.org/wiki/Q12024"
#> 
#> [[1]]$common_names
#> # A tibble: 101 × 2
#>         name language
#>        <chr>    <chr>
#> 1       Pine       en
#> 2  Denneboom       af
#> 3     Kiefer      als
#> 4   Pīntrēoƿ      ang
#> 5      صنوبر       ar
#> 6  Şam ağacı       az
#> 7     Kiefan      bar
#> 8       Хвоя       be
#> 9        Бор       bg
#> 10   ཐང་ཤིང་།       bo
#> # ... with 91 more rows
#> 
#> [[1]]$classification
#> # A tibble: 0 × 0
#> 
#> 
#> [[2]]
#> [[2]]$langlinks
#> # A tibble: 48 × 5
#>     lang
#> *  <chr>
#> 1     an
#> 2     ar
#> 3     az
#> 4     be
#> 5     bg
#> 6     ca
#> 7    ceb
#> 8     co
#> 9     cs
#> 10   csb
#> # ... with 38 more rows, and 4 more variables: url <chr>, langname <chr>,
#> #   autonym <chr>, `*` <chr>
…
#> 8                     Zwarte den       nl
#> 9                   Sosna czarna       pl
#> 10           Crni bor / Црни бор       sh
#> 11               Borovica čierna       sk
#> 12                       Karaçam       tr
#> 13                 Austrian Pine       en
#> 14 Corsican Pine, Pyreneean Pine       en
#> 
#> [[2]]$classification
#> # A tibble: 0 × 0
#> 
#> 
#> [[3]]
#> [[3]]$langlinks
#> # A tibble: 23 × 5
#>     lang                                                 url  langname
#> *  <chr>                                               <chr>     <chr>
#> 1    ast         https://ast.wikipedia.org/wiki/Spinus_pinus  Asturian
#> 2     bg          https://bg.wikipedia.org/wiki/Spinus_pinus Bulgarian
#> 3     ca       https://ca.wikipedia.org/wiki/Lluer_dels_pins   Catalan
#> 4    ceb      https://ceb.wikipedia.org/wiki/Carduelis_pinus   Cebuano
#> 5     cy https://cy.wikipedia.org/wiki/Pila_gwyrdd_y_pinwydd     Welsh
#> 6     de         https://de.wikipedia.org/wiki/Fichtenzeisig    German
#> 7     en           https://en.wikipedia.org/wiki/Pine_siskin   English
#> 8     eo            https://eo.wikipedia.org/wiki/Pinkardelo Esperanto
#> 9     es          https://es.wikipedia.org/wiki/Spinus_pinus   Spanish
#> 10    eu       https://eu.wikipedia.org/wiki/Carduelis_pinus    Basque
#> # ... with 13 more rows, and 2 more variables: autonym <chr>, `*` <chr>
#> 
#> [[3]]$externallinks
#> [1] "https://www.wikidata.org/wiki/Q26847063"                 
#> [2] "http://www.worldbirdnames.org"                           
#> [3] "http://www.worldbirdnames.org/bow/finches/"              
#> [4] "http://www.iucnredlist.org/apps/redlist/details/22720359"
#> 
#> [[3]]$common_names
#> # A tibble: 30 × 2
#>                                    name language
#>                                   <chr>    <chr>
#> 1                           Pine Siskin       en
#> 2                       lluer dels pins       ca
#> 3                       Carduelis pinus      ceb
#> 4                  čížek severoamerický       cs
#> 5                 Pila gwyrdd y pinwydd       cy
#> 6                           Fyrresisken       da
#> 7                         Fichtenzeisig       de
#> 8                            Pinkardelo       eo
#> 9  Jilguero de los Pinos, Pinero rayado       es
#> 10                         männisiisike       et
#> # ... with 20 more rows
…
