WikiSpecies — wt_wikispecies • wikitaxa
…
#> # ... with 4 more variables: url <chr>, langname <chr>, autonym <chr>,
#> #   `*` <chr>
#> 
#> [[3]]$externallinks
#> list()
#> 
#> [[3]]$common_names
#> # A tibble: 2 × 2
#>               name language
#>              <chr>    <chr>
#> 1 Pine-tree Lappet  English
#> 2    Bombyx du pin français
#> 
#> [[3]]$classification
#> # A tibble: 29 × 2
#>           rank          name
#>          <chr>         <chr>
#> 1  Superregnum     Eukaryota
#> 2       Regnum      Animalia
#> 3    Subregnum     Eumetazoa
#> 4       Cladus     Bilateria
#> 5       Cladus     Nephrozoa
#> 6       Cladus   Protostomia
#> 7       Cladus     Ecdysozoa
#> 8       Cladus Panarthropoda
#> 9       Phylum    Arthropoda
#> 10   Subphylum      Hexapoda
#> # ... with 19 more rows
…
